{
  "project_info": {
    "project_number": "869932116785",
    "firebase_url": "https://sagano-fe3fe.firebaseio.com",
    "project_id": "sagano-fe3fe",
    "storage_bucket": "sagano-fe3fe.appspot.com"
  },
  "client": [
    {
      "client_info": {
        "mobilesdk_app_id": "1:869932116785:android:2918dbe9af3d6934",
        "android_client_info": {
          "package_name": "gq.bdelivery.app.sagano"
        }
      },
      "oauth_client": [
        {
          "client_id": "869932116785-uaeo8ur1ipe9ig96139bqj0jmbej4qmu.apps.googleusercontent.com",
          "client_type": 3
        }
      ],
      "api_key": [
        {
          "current_key": "AIzaSyDwlVehX5JF6vNwbEBoryqWYfrK5kFu0P8"
        }
      ],
      "services": {
        "appinvite_service": {
          "other_platform_oauth_client": [
            {
              "client_id": "869932116785-uaeo8ur1ipe9ig96139bqj0jmbej4qmu.apps.googleusercontent.com",
              "client_type": 3
            }
          ]
        }
      }
    }
  ],
  "configuration_version": "1"
}